…
Index is a variable with inherent ordering from past to present.

Key is a set of variables that define observational units over time.

Each observation should be uniquely identified by index and key.

Each observational unit should be measured at a common interval, if regularly spaced.

eu_stock_markets <- as_tsibble(EuStockMarkets) %>% 
  mutate(index = as.Date(index))

eu_stock_markets

## # A tsibble: 7,440 x 3 [1D]
## # Key:       key [4]
##    index      key   value
##    <date>     <chr> <dbl>
##  1 1991-07-01 DAX   1629.
##  2 1991-07-02 DAX   1614.
##  3 1991-07-03 DAX   1607.
##  4 1991-07-05 DAX   1621.
##  5 1991-07-06 DAX   1618.
##  6 1991-07-08 DAX   1611.
##  7 1991-07-09 DAX   1631.
##  8 1991-07-10 DAX   1640.
##  9 1991-07-12 DAX   1635.
## 10 1991-07-13 DAX   1646.
## # … with 7,430 more rows
…
